-------------------------------------------------------------------------------
Test set: com.shewybits.asciiland.world.RoomTest
-------------------------------------------------------------------------------
Tests run: 5, Failures: 0, Errors: 0, Skipped: 0, Time elapsed: 0.058 sec
