-------------------------------------------------------------------------------
Test set: com.shewybits.asciiland.AppTest
-------------------------------------------------------------------------------
Tests run: 1, Failures: 0, Errors: 0, Skipped: 0, Time elapsed: 0.031 sec
